{
  "main": {
    "id": "cf13847d6f66a3bf",
    "type": "split",
    "children": [
      {
        "id": "d17a459f0f91d46e",
        "type": "tabs",
        "children": [
          {
            "id": "9e78521ba98403cb",
            "type": "leaf",
            "state": {
              "type": "markdown",
              "state": {
                "file": "Features.md",
                "mode": "source",
                "source": true
              }
            }
          }
        ]
      }
    ],
    "direction": "vertical"
  },
  "left": {
    "id": "9eda26d713c03c40",
    "type": "split",
    "children": [
      {
        "id": "f991821b23a61b7c",
        "type": "tabs",
        "children": [
          {
            "id": "b3e71b6d59d6a54d",
            "type": "leaf",
            "state": {
              "type": "file-explorer",
              "state": {
                "sortOrder": "alphabetical"
              }
            }
          },
          {
            "id": "7bf649d6235c5f7e",
            "type": "leaf",
            "state": {
              "type": "search",
              "state": {
                "query": "",
                "matchingCase": false,
                "explainSearch": false,
                "collapseAll": false,
                "extraContext": false,
                "sortOrder": "alphabetical"
              }
            }
          },
          {
            "id": "766db1f0554a6fd8",
            "type": "leaf",
            "state": {
              "type": "starred",
              "state": {}
            }
          }
        ]
      }
    ],
    "direction": "horizontal",
    "width": 300
  },
  "right": {
    "id": "3747d92ba203f4ed",
    "type": "split",
    "children": [
      {
        "id": "c8dbd20106012ccd",
        "type": "tabs",
        "children": [
          {
            "id": "daf3e01367c2c0d6",
            "type": "leaf",
            "state": {
              "type": "backlink",
              "state": {
                "file": "Features.md",
                "collapseAll": false,
                "extraContext": false,
                "sortOrder": "alphabetical",
                "showSearch": false,
                "searchQuery": "",
                "backlinkCollapsed": false,
                "unlinkedCollapsed": true
              }
            }
          },
          {
            "id": "a5f9f12c31c094e5",
            "type": "leaf",
            "state": {
              "type": "outgoing-link",
              "state": {
                "file": "Features.md",
                "linksCollapsed": false,
                "unlinkedCollapsed": true
              }
            }
          },
          {
            "id": "78e29f436ea0c34c",
            "type": "leaf",
            "state": {
              "type": "tag",
              "state": {
                "sortOrder": "frequency",
                "useHierarchy": true
              }
            }
          },
          {
            "id": "1161bf76c202ca93",
            "type": "leaf",
            "state": {
              "type": "outline",
              "state": {
                "file": "Features.md"
              }
            }
          }
        ]
      }
    ],
    "direction": "horizontal",
    "width": 300,
    "collapsed": true
  },
  "left-ribbon": {
    "hiddenItems": {
      "switcher:Open quick switcher": false,
      "graph:Open graph view": false,
      "canvas:Create new canvas": false,
      "daily-notes:Open today's daily note": false,
      "templates:Insert template": false,
      "command-palette:Open command palette": false
    }
  },
  "active": "9e78521ba98403cb",
  "lastOpenFiles": [
    "README.md",
    "Features.md",
    "Untitled.md",
    "Untitled.canvas",
    "2022-12-21.md"
  ]
}